{
	"video": {
		"screen": {
			"fullscreen": false,
			"resolution": "(1280, 1024)",
			"vsync": true
		}
	},
	"audio": {
		"volume": {
			"master": 59,
			"music": 21,
			"interface": 29,
			"effects": 33
		}
	},
	"audio3": {
		"volume": {
			"master": 26,
			"music": 31,
			"interface": 37,
			"effects": 44
		}
	},
	"audio2": {
		"volume": {
			"master": 34,
			"music": 34,
			"interface": 32,
			"effects": 30
		}
	}
}